alabaster==0.7.10
Babel==2.5.1
certifi==2017.11.5
chardet==3.0.4
docutils==0.14
funcsigs==1.0.2
idna==2.6
imagesize==0.7.1
Jinja2==2.9.6
MarkupSafe==1.0
mock==2.0.0
msgpack-python==0.4.8
numpy==1.13.3
pbr==3.1.1
py==1.4.34
Pygments==2.2.0
pytest==3.2.3
python-dateutil==2.6.1
pytz==2017.3
requests==2.18.4
scipy==1.0.0
six==1.11.0
snowballstemmer==1.2.1
Sphinx==1.6.5
sphinxcontrib-websupport==1.0.1
typing==3.6.2
ujson==1.35
urllib3==1.22
